{
  "templateexpress": {
    "databases": [
      {
        "host": "mongo1",
        "port": 27017
      },{
        "host": "mongo2",
        "port": 27017
      },{
        "host": "mongo3",
        "port": 27017
      }
    ],
    "databaseName": "examples-solange",
    "gateway": {
      "gatewayAddress": "gateway",
      "gatewayPort": 80
    }
  }
}
